1		// kundenr
22222222	// tlf
2848		// postadr
Anne		// navn
Adresse1	// adr
Poststed1	// poststed
Epost1		// epost

2
22222222
2848
Bent
Adresse2
Poststed2
Epost2

3
22222222
2848
Carlo
Adresse3
Poststed3
Epost3
